3 A tibble: 135 x 9 | test
…
# A tibble: 200 x 3
Var Time Val
  
1 “hcly summer2/sec2” 1979 71.6
2 “hcly summer2/sec2” 1980 81.7
3 “hcly summer2/sec2” 1981 68.0
4 “hcly summer2/sec2” 1982 73.4
5 “hcly summer2/sec2” 1983 69.9
6 “hcly summer2/sec2” 1984 71.6
7 “hcly summer2/sec2” 1985 72.5
8 “hcly summer2/sec2” 1986 85.2
9 “hcly summer2/sec2” 1987 83.9
10 “hcly summer2/sec2” 1988 80.1
# … with 190 more rows
…
