…
<!--chapter:end:15-biomass.Rmd-->

## B/Bmsy 






```
## # A tibble: 137 x 59
##    `Stock Name` Jurisdiction FMP   `Science Center` `Regional Ecosy~ `FSSI Stock?` `ITIS Taxon Ser~ `Scientific Nam~ `Common Name` `Stock Area` `Assessment Yea~
##    <chr>        <chr>        <chr> <chr>            <chr>            <chr>                    <dbl> <chr>            <chr>         <chr>                   <dbl>
##  1 White marli~ Atlantic HMS Cons~ SEFSC            Atlantic Highly~ N                       768126 Kajikia albida   White marlin  Atlantic                 2019
##  2 Yellowfin t~ Atlantic HMS Cons~ SEFSC            Atlantic Highly~ N                       172423 Thunnus albacar~ Yellowfin tu~ Atlantic                 2019
##  3 Lane snappe~ GMFMC        Reef~ SEFSC            Gulf of Mexico   Y                       168860 Lutjanus synagr~ Lane snapper  Gulf of Mex~             2019
##  4 Red grouper~ GMFMC        Reef~ SEFSC            Gulf of Mexico   Y                       167702 Epinephelus mor~ Red grouper   Gulf of Mex~             2019
##  5 Red grouper~ GMFMC        Reef~ SEFSC            Gulf of Mexico   Y                       167702 Epinephelus mor~ Red grouper   Gulf of Mex~             2019
##  6 Brown shrim~ GMFMC        Shri~ SEFSC            Gulf of Mexico   Y                       551570 Farfantepenaeus~ Brown shrimp  Gulf of Mex~             2019
##  7 Pink shrimp~ GMFMC        Shri~ SEFSC            Gulf of Mexico   Y                       551574 Farfantepenaeus~ Pink shrimp   Gulf of Mex~             2019
##  8 White shrim~ GMFMC        Shri~ SEFSC            Gulf of Mexico   Y                       551680 Litopenaeus set~ White shrimp  Gulf of Mex~             2019
##  9 Pacific hal~ IPHC         Spec~ NWFSC / AFSC     California Curr~ N                       172932 Hippoglossus st~ Pacific hali~ Pacific Coa~             2019
## 10 Bluefish - ~ MAFMC        Blue~ NEFSC            Northeast Shelf  Y                       168559 Pomatomus salta~ Bluefish      Atlantic Co~             2019
## # ... with 127 more rows, and 48 more variables: `Assessment Month` <dbl>, `Last Data Year` <dbl>, `Update Type` <chr>, `Review Result` <chr>, `Assessment
## #   Model` <chr>, `Model Version` <chr>, `Lead Lab` <chr>, Citation <chr>, `Final Assessment Report 1` <chr>, `Final Assessment Report 2` <chr>, `Point of
## #   Contact` <chr>, `Life History Data` <dbl>, `Abundance Data` <dbl>, `Catch Data` <dbl>, `Assessment Level` <dbl>, `Assessment Frequency` <dbl>, `Assessment
## #   Type` <chr>, `Model Category` <dbl>, `Catch Input Data` <dbl>, `Abundance Input Data` <dbl>, `Biological Input Data` <lgl>, `Ecosystem Linkage` <dbl>,
## #   `Composition Input Data` <dbl>, `F Year` <dbl>, `Estimated F` <dbl>, `F Unit` <chr>, `F Basis` <chr>, Flimit <dbl>, `Flimit Basis` <chr>, Fmsy <dbl>, `Fmsy
## #   Basis` <chr>, `F/Flimit` <dbl>, `F/Fmsy` <dbl>, Ftarget <dbl>, `Ftarget Basis` <chr>, `F/Ftarget` <dbl>, `B Year` <dbl>, `Estimated B` <dbl>, `B Unit` <chr>,
## #   `B Basis` <chr>, Blimit <dbl>, `Blimit Basis` <chr>, Bmsy <dbl>, `Bmsy Basis` <chr>, `B/Blimit` <dbl>, `B/Bmsy` <dbl>, MSY <dbl>, `MSY Unit` <chr>
```
…
```
## # A tibble: 337 x 61
##    `Stock Name` Jurisdiction FMP   `Science Center` `Regional Ecosy~ `FSSI Stock?` `ITIS Taxon Ser~ `Scientific Nam~ `Common Name` `Stock Area` `Assessment Yea~
##    <chr>        <chr>        <chr> <chr>            <chr>            <chr>                    <int> <chr>            <chr>         <chr>                   <int>
##  1 Atlantic su~ MAFMC        Atla~ NEFSC            Northeast Shelf  Y                        80944 Spisula solidis~ Atlantic sur~ Mid-Atlanti~             2006
##  2 Atlantic su~ MAFMC        Atla~ NEFSC            Northeast Shelf  Y                        80944 Spisula solidis~ Atlantic sur~ Mid-Atlanti~             2009
##  3 Atlantic su~ MAFMC        Atla~ NEFSC            Northeast Shelf  Y                        80944 Spisula solidis~ Atlantic sur~ Mid-Atlanti~             2013
##  4 Atlantic su~ MAFMC        Atla~ NEFSC            Northeast Shelf  Y                        80944 Spisula solidis~ Atlantic sur~ Mid-Atlanti~             2016
##  5 Ocean quaho~ MAFMC        Atla~ NEFSC            Northeast Shelf  Y                        81343 Arctica islandi~ Ocean quahog  Atlantic Co~             2006
##  6 Ocean quaho~ MAFMC        Atla~ NEFSC            Northeast Shelf  Y                        81343 Arctica islandi~ Ocean quahog  Atlantic Co~             2009
##  7 Ocean quaho~ MAFMC        Atla~ NEFSC            Northeast Shelf  Y                        81343 Arctica islandi~ Ocean quahog  Atlantic Co~             2013
##  8 Ocean quaho~ MAFMC        Atla~ NEFSC            Northeast Shelf  Y                        81343 Arctica islandi~ Ocean quahog  Atlantic Co~             2017
##  9 Bluefish - ~ MAFMC        Blue~ NEFSC            Northeast Shelf  Y                       168559 Pomatomus salta~ Bluefish      Atlantic Co~             2005
## 10 Bluefish - ~ MAFMC        Blue~ NEFSC            Northeast Shelf  Y                       168559 Pomatomus salta~ Bluefish      Atlantic Co~             2007
## # ... with 327 more rows, and 50 more variables: `Assessment Month` <int>, `Last Data Year` <int>, `Update Type` <chr>, `Review Result` <chr>, `Assessment
## #   Model` <chr>, `Model Version` <chr>, `Lead Lab` <chr>, Citation <chr>, `Final Assessment Report 1` <chr>, `Final Assessment Report 2` <chr>, `Point of
## #   Contact` <chr>, `Life History Data` <int>, `Abundance Data` <int>, `Catch Data` <int>, `Assessment Level` <int>, `Assessment Frequency` <int>, `Assessment
## #   Type` <chr>, `Model Category` <int>, `Catch Input Data` <int>, `Abundance Input Data` <int>, `Biological Input Data` <lgl>, `Ecosystem Linkage` <int>,
## #   `Composition Input Data` <int>, `F Year` <int>, `Estimated F` <dbl>, `F Unit` <chr>, `F Basis` <chr>, Flimit <dbl>, `Flimit Basis` <chr>, Fmsy <dbl>, `Fmsy
## #   Basis` <chr>, `F/Flimit` <dbl>, `F/Fmsy` <dbl>, Ftarget <dbl>, `Ftarget Basis` <chr>, `F/Ftarget` <dbl>, `B Year` <int>, `Estimated B` <dbl>, `B Unit` <chr>,
## #   `B Basis` <chr>, Blimit <dbl>, `Blimit Basis` <chr>, Bmsy <dbl>, `Bmsy Basis` <chr>, `B/Blimit` <dbl>, `B/Bmsy` <dbl>, MSY <dbl>, `MSY Unit` <chr>,
## #   Species <chr>, Region <chr>
```
…
