4.3 B/Bmsy | Atlantic mackerel
…
            Atlantic mackerel

4.3 B/Bmsy

## # A tibble: 137 x 59
##    `Stock Name` Jurisdiction FMP   `Science Center` `Regional Ecosy~
##    <chr>        <chr>        <chr> <chr>            <chr>           
##  1 White marli~ Atlantic HMS Cons~ SEFSC            Atlantic Highly~
##  2 Yellowfin t~ Atlantic HMS Cons~ SEFSC            Atlantic Highly~
##  3 Lane snappe~ GMFMC        Reef~ SEFSC            Gulf of Mexico  
##  4 Red grouper~ GMFMC        Reef~ SEFSC            Gulf of Mexico  
##  5 Red grouper~ GMFMC        Reef~ SEFSC            Gulf of Mexico  
##  6 Brown shrim~ GMFMC        Shri~ SEFSC            Gulf of Mexico  
##  7 Pink shrimp~ GMFMC        Shri~ SEFSC            Gulf of Mexico  
##  8 White shrim~ GMFMC        Shri~ SEFSC            Gulf of Mexico  
##  9 Pacific hal~ IPHC         Spec~ NWFSC / AFSC     California Curr~
## 10 Bluefish - ~ MAFMC        Blue~ NEFSC            Northeast Shelf 
## # ... with 127 more rows, and 54 more variables: `FSSI Stock?` <chr>, `ITIS
## #   Taxon Serial Number` <dbl>, `Scientific Name` <chr>, `Common Name` <chr>,
## #   `Stock Area` <chr>, `Assessment Year` <dbl>, `Assessment Month` <dbl>,
## #   `Last Data Year` <dbl>, `Update Type` <chr>, `Review Result` <chr>,
## #   `Assessment Model` <chr>, `Model Version` <chr>, `Lead Lab` <chr>,
## #   Citation <chr>, `Final Assessment Report 1` <chr>, `Final Assessment Report
## #   2` <chr>, `Point of Contact` <chr>, `Life History Data` <dbl>, `Abundance
## #   Data` <dbl>, `Catch Data` <dbl>, `Assessment Level` <dbl>, `Assessment
## #   Frequency` <dbl>, `Assessment Type` <chr>, `Model Category` <dbl>, `Catch
…
## #   `Final Assessment Report 1` <chr>, `Final Assessment Report 2` <chr>,
## #   `Point of Contact` <chr>, `Life History Data` <int>, `Abundance
## #   Data` <int>, `Catch Data` <int>, `Assessment Level` <int>, `Assessment
## #   Frequency` <int>, `Assessment Type` <chr>, `Model Category` <int>, `Catch
## #   Input Data` <int>, `Abundance Input Data` <int>, `Biological Input
## #   Data` <lgl>, `Ecosystem Linkage` <int>, `Composition Input Data` <int>, `F
## #   Year` <int>, `Estimated F` <dbl>, `F Unit` <chr>, `F Basis` <chr>,
## #   Flimit <dbl>, `Flimit Basis` <chr>, Fmsy <dbl>, `Fmsy Basis` <chr>,
## #   `F/Flimit` <dbl>, `F/Fmsy` <dbl>, Ftarget <dbl>, `Ftarget Basis` <chr>,
## #   `F/Ftarget` <dbl>, `B Year` <int>, `Estimated B` <dbl>, `B Unit` <chr>, `B
## #   Basis` <chr>, Blimit <dbl>, `Blimit Basis` <chr>, Bmsy <dbl>, `Bmsy
## #   Basis` <chr>, `B/Blimit` <dbl>, `B/Bmsy` <dbl>, MSY <dbl>, `MSY
## #   Unit` <chr>, Species <chr>, Region <chr>

## # A tibble: 337 x 61
##    `Stock Name` Jurisdiction FMP   `Science Center` `Regional Ecosy~
##    <chr>        <chr>        <chr> <chr>            <chr>           
##  1 Atlantic su~ MAFMC        Atla~ NEFSC            Northeast Shelf 
##  2 Atlantic su~ MAFMC        Atla~ NEFSC            Northeast Shelf 
##  3 Atlantic su~ MAFMC        Atla~ NEFSC            Northeast Shelf 
##  4 Atlantic su~ MAFMC        Atla~ NEFSC            Northeast Shelf 
##  5 Ocean quaho~ MAFMC        Atla~ NEFSC            Northeast Shelf 
##  6 Ocean quaho~ MAFMC        Atla~ NEFSC            Northeast Shelf 
##  7 Ocean quaho~ MAFMC        Atla~ NEFSC            Northeast Shelf 
##  8 Ocean quaho~ MAFMC        Atla~ NEFSC            Northeast Shelf 
##  9 Bluefish - ~ MAFMC        Blue~ NEFSC            Northeast Shelf 
## 10 Bluefish - ~ MAFMC        Blue~ NEFSC            Northeast Shelf 
## # ... with 327 more rows, and 56 more variables: `FSSI Stock?` <chr>, `ITIS
## #   Taxon Serial Number` <int>, `Scientific Name` <chr>, `Common Name` <chr>,
## #   `Stock Area` <chr>, `Assessment Year` <int>, `Assessment Month` <int>,
## #   `Last Data Year` <int>, `Update Type` <chr>, `Review Result` <chr>,
## #   `Assessment Model` <chr>, `Model Version` <chr>, `Lead Lab` <chr>,
## #   Citation <chr>, `Final Assessment Report 1` <chr>, `Final Assessment Report
## #   2` <chr>, `Point of Contact` <chr>, `Life History Data` <int>, `Abundance
## #   Data` <int>, `Catch Data` <int>, `Assessment Level` <int>, `Assessment
## #   Frequency` <int>, `Assessment Type` <chr>, `Model Category` <int>, `Catch
…
